%!PS-Adobe-3.0 EPSF-3.0
%%Title: roc_knn.eps
%%Creator: matplotlib version 3.3.2, http://matplotlib.org/
%%CreationDate: Sun May  2 15:44:41 2021
%%Orientation: portrait
%%BoundingBox: -234.0 -144.0 846.0 936.0
%%EndComments
%%BeginProlog
/mpldict 8 dict def
mpldict begin
/m { moveto } bind def
/l { lineto } bind def
/r { rlineto } bind def
/c { curveto } bind def
/cl { closepath } bind def
/box {
      m
      1 index 0 r
      0 exch r
      neg 0 r
      cl
    } bind def
/clipbox {
      box
      clip
      newpath
    } bind def
%!PS-Adobe-3.0 Resource-Font
%%Title: DejaVu Sans
%%Copyright: Copyright (c) 2003 by Bitstream, Inc. All Rights Reserved. Copyright (c) 2006 by Tavmjong Bah. All Rights Reserved. DejaVu changes are in public domain 
%%Creator: Converted from TrueType to type 3 by PPR
25 dict begin
/_d{bind def}bind def
/_m{moveto}_d
/_l{lineto}_d
/_cl{closepath eofill}_d
/_c{curveto}_d
/_sc{7 -1 roll{setcachedevice}{pop pop pop pop pop pop}ifelse}_d
/_e{exec}_d
/FontName /DejaVuSans def
/PaintType 0 def
/FontMatrix[.001 0 0 .001 0 0]def
/FontBBox[-1021 -463 1793 1232]def
/FontType 3 def
/Encoding [ /space /parenleft /parenright /hyphen /period /zero /one /two /three /four /five /six /seven /eight /nine /equal /B /C /F /K /M /N /O /P /R /T /a /b /c /d /e /f /g /h /i /l /m /o /r /s /t /u /v /y ] def
/FontInfo 10 dict dup begin
/FamilyName (DejaVu Sans) def
/FullName (DejaVu Sans) def
/Notice (Copyright (c) 2003 by Bitstream, Inc. All Rights Reserved. Copyright (c) 2006 by Tavmjong Bah. All Rights Reserved. DejaVu changes are in public domain ) def
/Weight (Book) def
/Version (Version 2.35) def
/ItalicAngle 0.0 def
/isFixedPitch false def
/UnderlinePosition -130 def
/UnderlineThickness 90 def
end readonly def
/CharStrings 45 dict dup begin
/.notdef 0 def
/space{318 0 0 0 0 0 _sc
}_d
/parenleft{390 0 86 -131 310 759 _sc
310 759 _m
266 683 234 609 213 536 _c
191 463 181 389 181 314 _c
181 238 191 164 213 91 _c
234 17 266 -56 310 -131 _c
232 -131 _l
183 -54 146 20 122 94 _c
98 168 86 241 86 314 _c
86 386 98 459 122 533 _c
146 607 182 682 232 759 _c
310 759 _l
_cl}_d
/parenright{390 0 80 -131 304 759 _sc
80 759 _m
158 759 _l
206 682 243 607 267 533 _c
291 459 304 386 304 314 _c
304 241 291 168 267 94 _c
243 20 206 -54 158 -131 _c
80 -131 _l
123 -56 155 17 177 91 _c
198 164 209 238 209 314 _c
209 389 198 463 177 536 _c
155 609 123 683 80 759 _c
_cl}_d
/hyphen{361 0 49 234 312 314 _sc
49 314 _m
312 314 _l
312 234 _l
49 234 _l
49 314 _l
_cl}_d
/period{318 0 107 0 210 124 _sc
107 124 _m
210 124 _l
210 0 _l
107 0 _l
107 124 _l
_cl}_d
/zero{636 0 66 -13 570 742 _sc
318 664 _m
267 664 229 639 203 589 _c
177 539 165 464 165 364 _c
165 264 177 189 203 139 _c
229 89 267 64 318 64 _c
369 64 407 89 433 139 _c
458 189 471 264 471 364 _c
471 464 458 539 433 589 _c
407 639 369 664 318 664 _c
318 742 _m
399 742 461 709 505 645 _c
548 580 570 486 570 364 _c
570 241 548 147 505 83 _c
461 19 399 -13 318 -13 _c
236 -13 173 19 130 83 _c
87 147 66 241 66 364 _c
66 486 87 580 130 645 _c
173 709 236 742 318 742 _c
_cl}_d
/one{636 0 110 0 544 729 _sc
124 83 _m
285 83 _l
285 639 _l
110 604 _l
110 694 _l
284 729 _l
383 729 _l
383 83 _l
544 83 _l
544 0 _l
124 0 _l
124 83 _l
_cl}_d
/two{{636 0 73 0 536 742 _sc
192 83 _m
536 83 _l
536 0 _l
73 0 _l
73 83 _l
110 121 161 173 226 239 _c
290 304 331 346 348 365 _c
380 400 402 430 414 455 _c
426 479 433 504 433 528 _c
433 566 419 598 392 622 _c
365 646 330 659 286 659 _c
255 659 222 653 188 643 _c
154 632 117 616 78 594 _c
78 694 _l
118 710 155 722 189 730 _c
223 738 255 742 284 742 _c
}_e{359 742 419 723 464 685 _c
509 647 532 597 532 534 _c
532 504 526 475 515 449 _c
504 422 484 390 454 354 _c
446 344 420 317 376 272 _c
332 227 271 164 192 83 _c
_cl}_e}_d
/three{{636 0 76 -13 556 742 _sc
406 393 _m
453 383 490 362 516 330 _c
542 298 556 258 556 212 _c
556 140 531 84 482 45 _c
432 6 362 -13 271 -13 _c
240 -13 208 -10 176 -4 _c
144 1 110 10 76 22 _c
76 117 _l
103 101 133 89 166 81 _c
198 73 232 69 268 69 _c
330 69 377 81 409 105 _c
441 129 458 165 458 212 _c
458 254 443 288 413 312 _c
383 336 341 349 287 349 _c
}_e{202 349 _l
202 430 _l
291 430 _l
339 430 376 439 402 459 _c
428 478 441 506 441 543 _c
441 580 427 609 401 629 _c
374 649 336 659 287 659 _c
260 659 231 656 200 650 _c
169 644 135 635 98 623 _c
98 711 _l
135 721 170 729 203 734 _c
235 739 266 742 296 742 _c
370 742 429 725 473 691 _c
517 657 539 611 539 553 _c
539 513 527 479 504 451 _c
481 423 448 403 406 393 _c
_cl}_e}_d
/four{636 0 49 0 580 729 _sc
378 643 _m
129 254 _l
378 254 _l
378 643 _l
352 729 _m
476 729 _l
476 254 _l
580 254 _l
580 172 _l
476 172 _l
476 0 _l
378 0 _l
378 172 _l
49 172 _l
49 267 _l
352 729 _l
_cl}_d
/five{{636 0 77 -13 549 729 _sc
108 729 _m
495 729 _l
495 646 _l
198 646 _l
198 467 _l
212 472 227 476 241 478 _c
255 480 270 482 284 482 _c
365 482 429 459 477 415 _c
525 370 549 310 549 234 _c
549 155 524 94 475 51 _c
426 8 357 -13 269 -13 _c
238 -13 207 -10 175 -6 _c
143 -1 111 6 77 17 _c
77 116 _l
106 100 136 88 168 80 _c
199 72 232 69 267 69 _c
}_e{323 69 368 83 401 113 _c
433 143 450 183 450 234 _c
450 284 433 324 401 354 _c
368 384 323 399 267 399 _c
241 399 214 396 188 390 _c
162 384 135 375 108 363 _c
108 729 _l
_cl}_e}_d
/six{{636 0 70 -13 573 742 _sc
330 404 _m
286 404 251 388 225 358 _c
199 328 186 286 186 234 _c
186 181 199 139 225 109 _c
251 79 286 64 330 64 _c
374 64 409 79 435 109 _c
461 139 474 181 474 234 _c
474 286 461 328 435 358 _c
409 388 374 404 330 404 _c
526 713 _m
526 623 _l
501 635 476 644 451 650 _c
425 656 400 659 376 659 _c
310 659 260 637 226 593 _c
}_e{192 549 172 482 168 394 _c
187 422 211 444 240 459 _c
269 474 301 482 336 482 _c
409 482 467 459 509 415 _c
551 371 573 310 573 234 _c
573 159 550 99 506 54 _c
462 9 403 -13 330 -13 _c
246 -13 181 19 137 83 _c
92 147 70 241 70 364 _c
70 479 97 571 152 639 _c
206 707 280 742 372 742 _c
396 742 421 739 447 735 _c
472 730 498 723 526 713 _c
_cl}_e}_d
/seven{636 0 82 0 551 729 _sc
82 729 _m
551 729 _l
551 687 _l
286 0 _l
183 0 _l
432 646 _l
82 646 _l
82 729 _l
_cl}_d
/eight{{636 0 68 -13 568 742 _sc
318 346 _m
271 346 234 333 207 308 _c
180 283 167 249 167 205 _c
167 161 180 126 207 101 _c
234 76 271 64 318 64 _c
364 64 401 76 428 102 _c
455 127 469 161 469 205 _c
469 249 455 283 429 308 _c
402 333 365 346 318 346 _c
219 388 _m
177 398 144 418 120 447 _c
96 476 85 511 85 553 _c
85 611 105 657 147 691 _c
188 725 245 742 318 742 _c
}_e{390 742 447 725 489 691 _c
530 657 551 611 551 553 _c
551 511 539 476 515 447 _c
491 418 459 398 417 388 _c
464 377 501 355 528 323 _c
554 291 568 251 568 205 _c
568 134 546 80 503 43 _c
459 5 398 -13 318 -13 _c
237 -13 175 5 132 43 _c
89 80 68 134 68 205 _c
68 251 81 291 108 323 _c
134 355 171 377 219 388 _c
183 544 _m
183 506 194 476 218 455 _c
}_e{242 434 275 424 318 424 _c
360 424 393 434 417 455 _c
441 476 453 506 453 544 _c
453 582 441 611 417 632 _c
393 653 360 664 318 664 _c
275 664 242 653 218 632 _c
194 611 183 582 183 544 _c
_cl}_e}_d
/nine{{636 0 63 -13 566 742 _sc
110 15 _m
110 105 _l
134 93 159 84 185 78 _c
210 72 235 69 260 69 _c
324 69 374 90 408 134 _c
442 178 462 244 468 334 _c
448 306 424 284 396 269 _c
367 254 335 247 300 247 _c
226 247 168 269 126 313 _c
84 357 63 417 63 494 _c
63 568 85 628 129 674 _c
173 719 232 742 306 742 _c
390 742 455 709 499 645 _c
543 580 566 486 566 364 _c
}_e{566 248 538 157 484 89 _c
429 21 356 -13 264 -13 _c
239 -13 214 -10 189 -6 _c
163 -2 137 5 110 15 _c
306 324 _m
350 324 385 339 411 369 _c
437 399 450 441 450 494 _c
450 546 437 588 411 618 _c
385 648 350 664 306 664 _c
262 664 227 648 201 618 _c
175 588 162 546 162 494 _c
162 441 175 399 201 369 _c
227 339 262 324 306 324 _c
_cl}_e}_d
/equal{838 0 106 172 732 454 _sc
106 454 _m
732 454 _l
732 372 _l
106 372 _l
106 454 _l
106 255 _m
732 255 _l
732 172 _l
106 172 _l
106 255 _l
_cl}_d
/B{{686 0 98 0 615 729 _sc
197 348 _m
197 81 _l
355 81 _l
408 81 447 92 473 114 _c
498 136 511 169 511 215 _c
511 260 498 293 473 315 _c
447 337 408 348 355 348 _c
197 348 _l
197 648 _m
197 428 _l
343 428 _l
391 428 426 437 450 455 _c
474 473 486 500 486 538 _c
486 574 474 602 450 620 _c
426 638 391 648 343 648 _c
197 648 _l
98 729 _m
350 729 _l
}_e{425 729 483 713 524 682 _c
564 650 585 606 585 549 _c
585 504 574 468 553 442 _c
532 416 502 399 462 393 _c
510 382 548 360 575 327 _c
601 294 615 253 615 204 _c
615 138 592 88 548 53 _c
504 17 441 0 360 0 _c
98 0 _l
98 729 _l
_cl}_e}_d
/C{{698 0 56 -13 644 742 _sc
644 673 _m
644 569 _l
610 599 575 622 537 638 _c
499 653 460 661 418 661 _c
334 661 270 635 226 584 _c
182 533 160 460 160 364 _c
160 268 182 194 226 143 _c
270 92 334 67 418 67 _c
460 67 499 74 537 90 _c
575 105 610 128 644 159 _c
644 56 _l
609 32 572 15 534 4 _c
496 -7 455 -13 412 -13 _c
302 -13 215 20 151 87 _c
}_e{87 154 56 246 56 364 _c
56 481 87 573 151 641 _c
215 708 302 742 412 742 _c
456 742 497 736 535 725 _c
573 713 610 696 644 673 _c
_cl}_e}_d
/F{575 0 98 0 517 729 _sc
98 729 _m
517 729 _l
517 646 _l
197 646 _l
197 431 _l
486 431 _l
486 348 _l
197 348 _l
197 0 _l
98 0 _l
98 729 _l
_cl}_d
/K{656 0 98 0 677 729 _sc
98 729 _m
197 729 _l
197 421 _l
524 729 _l
651 729 _l
289 389 _l
677 0 _l
547 0 _l
197 351 _l
197 0 _l
98 0 _l
98 729 _l
_cl}_d
/M{863 0 98 0 765 729 _sc
98 729 _m
245 729 _l
431 233 _l
618 729 _l
765 729 _l
765 0 _l
669 0 _l
669 640 _l
481 140 _l
382 140 _l
194 640 _l
194 0 _l
98 0 _l
98 729 _l
_cl}_d
/N{748 0 98 0 650 729 _sc
98 729 _m
231 729 _l
554 119 _l
554 729 _l
650 729 _l
650 0 _l
517 0 _l
194 610 _l
194 0 _l
98 0 _l
98 729 _l
_cl}_d
/O{787 0 56 -13 731 742 _sc
394 662 _m
322 662 265 635 223 582 _c
181 528 160 456 160 364 _c
160 272 181 199 223 146 _c
265 92 322 66 394 66 _c
465 66 522 92 564 146 _c
606 199 627 272 627 364 _c
627 456 606 528 564 582 _c
522 635 465 662 394 662 _c
394 742 _m
496 742 577 707 639 639 _c
700 571 731 479 731 364 _c
731 248 700 157 639 89 _c
577 21 496 -13 394 -13 _c
291 -13 209 21 148 89 _c
86 157 56 248 56 364 _c
56 479 86 571 148 639 _c
209 707 291 742 394 742 _c
_cl}_d
/P{603 0 98 0 569 729 _sc
197 648 _m
197 374 _l
321 374 _l
367 374 402 385 427 409 _c
452 433 465 467 465 511 _c
465 555 452 588 427 612 _c
402 636 367 648 321 648 _c
197 648 _l
98 729 _m
321 729 _l
402 729 464 710 506 673 _c
548 636 569 582 569 511 _c
569 439 548 384 506 348 _c
464 311 402 293 321 293 _c
197 293 _l
197 0 _l
98 0 _l
98 729 _l
_cl}_d
/R{{695 0 98 0 666 729 _sc
444 342 _m
465 334 486 319 506 296 _c
526 272 546 240 566 199 _c
666 0 _l
560 0 _l
467 187 _l
443 235 419 268 397 284 _c
374 300 343 308 304 308 _c
197 308 _l
197 0 _l
98 0 _l
98 729 _l
321 729 _l
404 729 466 711 507 677 _c
548 642 569 589 569 519 _c
569 473 558 434 537 404 _c
515 374 484 353 444 342 _c
197 648 _m
197 389 _l
321 389 _l
}_e{368 389 404 400 428 422 _c
452 444 465 476 465 519 _c
465 561 452 593 428 615 _c
404 637 368 648 321 648 _c
197 648 _l
_cl}_e}_d
/T{611 0 -2 0 614 729 _sc
-2 729 _m
614 729 _l
614 646 _l
355 646 _l
355 0 _l
256 0 _l
256 646 _l
-2 646 _l
-2 729 _l
_cl}_d
/a{{613 0 60 -13 522 560 _sc
343 275 _m
270 275 220 266 192 250 _c
164 233 150 205 150 165 _c
150 133 160 107 181 89 _c
202 70 231 61 267 61 _c
317 61 357 78 387 114 _c
417 149 432 196 432 255 _c
432 275 _l
343 275 _l
522 312 _m
522 0 _l
432 0 _l
432 83 _l
411 49 385 25 355 10 _c
325 -5 287 -13 243 -13 _c
187 -13 142 2 109 33 _c
76 64 60 106 60 159 _c
}_e{60 220 80 266 122 298 _c
163 329 224 345 306 345 _c
432 345 _l
432 354 _l
432 395 418 427 391 450 _c
364 472 326 484 277 484 _c
245 484 215 480 185 472 _c
155 464 127 453 100 439 _c
100 522 _l
132 534 164 544 195 550 _c
226 556 256 560 286 560 _c
365 560 424 539 463 498 _c
502 457 522 395 522 312 _c
_cl}_e}_d
/b{{635 0 91 -13 580 760 _sc
487 273 _m
487 339 473 390 446 428 _c
418 466 381 485 334 485 _c
286 485 249 466 222 428 _c
194 390 181 339 181 273 _c
181 207 194 155 222 117 _c
249 79 286 61 334 61 _c
381 61 418 79 446 117 _c
473 155 487 207 487 273 _c
181 464 _m
199 496 223 520 252 536 _c
281 552 316 560 356 560 _c
422 560 476 533 518 481 _c
559 428 580 359 580 273 _c
}_e{580 187 559 117 518 65 _c
476 13 422 -13 356 -13 _c
316 -13 281 -5 252 10 _c
223 25 199 49 181 82 _c
181 0 _l
91 0 _l
91 760 _l
181 760 _l
181 464 _l
_cl}_e}_d
/c{{550 0 55 -13 488 560 _sc
488 526 _m
488 442 _l
462 456 437 466 411 473 _c
385 480 360 484 334 484 _c
276 484 230 465 198 428 _c
166 391 150 339 150 273 _c
150 206 166 154 198 117 _c
230 80 276 62 334 62 _c
360 62 385 65 411 72 _c
437 79 462 90 488 104 _c
488 21 _l
462 9 436 0 410 -5 _c
383 -10 354 -13 324 -13 _c
242 -13 176 12 128 64 _c
}_e{79 115 55 185 55 273 _c
55 362 79 432 128 483 _c
177 534 244 560 330 560 _c
358 560 385 557 411 551 _c
437 545 463 537 488 526 _c
_cl}_e}_d
/d{{635 0 55 -13 544 760 _sc
454 464 _m
454 760 _l
544 760 _l
544 0 _l
454 0 _l
454 82 _l
435 49 411 25 382 10 _c
353 -5 319 -13 279 -13 _c
213 -13 159 13 117 65 _c
75 117 55 187 55 273 _c
55 359 75 428 117 481 _c
159 533 213 560 279 560 _c
319 560 353 552 382 536 _c
411 520 435 496 454 464 _c
148 273 _m
148 207 161 155 188 117 _c
215 79 253 61 301 61 _c
}_e{348 61 385 79 413 117 _c
440 155 454 207 454 273 _c
454 339 440 390 413 428 _c
385 466 348 485 301 485 _c
253 485 215 466 188 428 _c
161 390 148 339 148 273 _c
_cl}_e}_d
/e{{615 0 55 -13 562 560 _sc
562 296 _m
562 252 _l
149 252 _l
153 190 171 142 205 110 _c
238 78 284 62 344 62 _c
378 62 412 66 444 74 _c
476 82 509 95 541 113 _c
541 28 _l
509 14 476 3 442 -3 _c
408 -9 373 -13 339 -13 _c
251 -13 182 12 131 62 _c
80 112 55 181 55 268 _c
55 357 79 428 127 481 _c
175 533 241 560 323 560 _c
397 560 455 536 498 489 _c
}_e{540 441 562 377 562 296 _c
472 322 _m
471 371 457 410 431 440 _c
404 469 368 484 324 484 _c
274 484 234 469 204 441 _c
174 413 156 373 152 322 _c
472 322 _l
_cl}_e}_d
/f{352 0 23 0 371 760 _sc
371 760 _m
371 685 _l
285 685 _l
253 685 230 678 218 665 _c
205 652 199 629 199 595 _c
199 547 _l
347 547 _l
347 477 _l
199 477 _l
199 0 _l
109 0 _l
109 477 _l
23 477 _l
23 547 _l
109 547 _l
109 585 _l
109 645 123 690 151 718 _c
179 746 224 760 286 760 _c
371 760 _l
_cl}_d
/g{{635 0 55 -207 544 560 _sc
454 280 _m
454 344 440 395 414 431 _c
387 467 349 485 301 485 _c
253 485 215 467 188 431 _c
161 395 148 344 148 280 _c
148 215 161 165 188 129 _c
215 93 253 75 301 75 _c
349 75 387 93 414 129 _c
440 165 454 215 454 280 _c
544 68 _m
544 -24 523 -93 482 -139 _c
440 -184 377 -207 292 -207 _c
260 -207 231 -204 203 -200 _c
175 -195 147 -188 121 -178 _c
}_e{121 -91 _l
147 -105 173 -115 199 -122 _c
225 -129 251 -133 278 -133 _c
336 -133 380 -117 410 -87 _c
439 -56 454 -10 454 52 _c
454 96 _l
435 64 411 40 382 24 _c
353 8 319 0 279 0 _c
211 0 157 25 116 76 _c
75 127 55 195 55 280 _c
55 364 75 432 116 483 _c
157 534 211 560 279 560 _c
319 560 353 552 382 536 _c
411 520 435 496 454 464 _c
454 547 _l
544 547 _l
}_e{544 68 _l
_cl}_e}_d
/h{634 0 91 0 549 760 _sc
549 330 _m
549 0 _l
459 0 _l
459 327 _l
459 379 448 417 428 443 _c
408 469 378 482 338 482 _c
289 482 251 466 223 435 _c
195 404 181 362 181 309 _c
181 0 _l
91 0 _l
91 760 _l
181 760 _l
181 462 _l
202 494 227 519 257 535 _c
286 551 320 560 358 560 _c
420 560 468 540 500 501 _c
532 462 549 405 549 330 _c
_cl}_d
/i{278 0 94 0 184 760 _sc
94 547 _m
184 547 _l
184 0 _l
94 0 _l
94 547 _l
94 760 _m
184 760 _l
184 646 _l
94 646 _l
94 760 _l
_cl}_d
/l{278 0 94 0 184 760 _sc
94 760 _m
184 760 _l
184 0 _l
94 0 _l
94 760 _l
_cl}_d
/m{{974 0 91 0 889 560 _sc
520 442 _m
542 482 569 511 600 531 _c
631 550 668 560 711 560 _c
767 560 811 540 842 500 _c
873 460 889 403 889 330 _c
889 0 _l
799 0 _l
799 327 _l
799 379 789 418 771 444 _c
752 469 724 482 686 482 _c
639 482 602 466 575 435 _c
548 404 535 362 535 309 _c
535 0 _l
445 0 _l
445 327 _l
445 379 435 418 417 444 _c
398 469 369 482 331 482 _c
}_e{285 482 248 466 221 435 _c
194 404 181 362 181 309 _c
181 0 _l
91 0 _l
91 547 _l
181 547 _l
181 462 _l
201 495 226 520 255 536 _c
283 552 317 560 357 560 _c
397 560 430 550 458 530 _c
486 510 506 480 520 442 _c
_cl}_e}_d
/o{612 0 55 -13 557 560 _sc
306 484 _m
258 484 220 465 192 427 _c
164 389 150 338 150 273 _c
150 207 163 156 191 118 _c
219 80 257 62 306 62 _c
354 62 392 80 420 118 _c
448 156 462 207 462 273 _c
462 337 448 389 420 427 _c
392 465 354 484 306 484 _c
306 560 _m
384 560 445 534 490 484 _c
534 433 557 363 557 273 _c
557 183 534 113 490 63 _c
445 12 384 -13 306 -13 _c
227 -13 165 12 121 63 _c
77 113 55 183 55 273 _c
55 363 77 433 121 484 _c
165 534 227 560 306 560 _c
_cl}_d
/r{411 0 91 0 411 560 _sc
411 463 _m
401 469 390 473 378 476 _c
366 478 353 480 339 480 _c
288 480 249 463 222 430 _c
194 397 181 350 181 288 _c
181 0 _l
91 0 _l
91 547 _l
181 547 _l
181 462 _l
199 495 224 520 254 536 _c
284 552 321 560 365 560 _c
371 560 378 559 386 559 _c
393 558 401 557 411 555 _c
411 463 _l
_cl}_d
/s{{521 0 54 -13 472 560 _sc
443 531 _m
443 446 _l
417 458 391 468 364 475 _c
336 481 308 485 279 485 _c
234 485 200 478 178 464 _c
156 450 145 430 145 403 _c
145 382 153 366 169 354 _c
185 342 217 330 265 320 _c
296 313 _l
360 299 405 279 432 255 _c
458 230 472 195 472 151 _c
472 100 452 60 412 31 _c
372 1 316 -13 246 -13 _c
216 -13 186 -10 154 -5 _c
}_e{122 0 89 8 54 20 _c
54 113 _l
87 95 120 82 152 74 _c
184 65 216 61 248 61 _c
290 61 323 68 346 82 _c
368 96 380 117 380 144 _c
380 168 371 187 355 200 _c
339 213 303 226 247 238 _c
216 245 _l
160 257 119 275 95 299 _c
70 323 58 356 58 399 _c
58 450 76 490 112 518 _c
148 546 200 560 268 560 _c
301 560 332 557 362 552 _c
391 547 418 540 443 531 _c
}_e{_cl}_e}_d
/t{392 0 27 0 368 702 _sc
183 702 _m
183 547 _l
368 547 _l
368 477 _l
183 477 _l
183 180 _l
183 135 189 106 201 94 _c
213 81 238 75 276 75 _c
368 75 _l
368 0 _l
276 0 _l
206 0 158 13 132 39 _c
106 65 93 112 93 180 _c
93 477 _l
27 477 _l
27 547 _l
93 547 _l
93 702 _l
183 702 _l
_cl}_d
/u{634 0 85 -13 543 560 _sc
85 216 _m
85 547 _l
175 547 _l
175 219 _l
175 167 185 129 205 103 _c
225 77 255 64 296 64 _c
344 64 383 79 411 110 _c
439 141 453 183 453 237 _c
453 547 _l
543 547 _l
543 0 _l
453 0 _l
453 84 _l
431 50 405 26 377 10 _c
348 -5 315 -13 277 -13 _c
214 -13 166 6 134 45 _c
101 83 85 140 85 216 _c
311 560 _m
311 560 _l
_cl}_d
/v{592 0 30 0 562 547 _sc
30 547 _m
125 547 _l
296 88 _l
467 547 _l
562 547 _l
357 0 _l
235 0 _l
30 547 _l
_cl}_d
/y{592 0 30 -207 562 547 _sc
322 -50 _m
296 -114 271 -157 247 -177 _c
223 -197 191 -207 151 -207 _c
79 -207 _l
79 -132 _l
132 -132 _l
156 -132 175 -126 189 -114 _c
203 -102 218 -75 235 -31 _c
251 9 _l
30 547 _l
125 547 _l
296 119 _l
467 547 _l
562 547 _l
322 -50 _l
_cl}_d
end readonly def

/BuildGlyph
 {exch begin
 CharStrings exch
 2 copy known not{pop /.notdef}if
 true 3 1 roll get exec
 end}_d

/BuildChar {
 1 index /Encoding get exch get
 1 index /BuildGlyph get exec
}_d

FontName currentdict end definefont pop
end
%%EndProlog
mpldict begin
-234 -144 translate
1080 1080 0 0 clipbox
gsave
0 0 m
1080 0 l
1080 1080 l
0 1080 l
cl
1.000 setgray
fill
grestore
gsave
135 135 m
972 135 l
972 950.4 l
135 950.4 l
cl
0.918 0.918 0.949 setrgbcolor
fill
grestore
1.000 setlinewidth
1 setlinejoin
1 setlinecap
[] 0 setdash
1.000 setgray
gsave
837 815.4 135 135 clipbox
135 135 m
135 950.4 l
stroke
grestore
0.150 setgray
/DejaVuSans findfont
11.000 scalefont
setfont
gsave
126.250000 117.140625 translate
0.000000 rotate
0.000000 0 m /zero glyphshow
6.998535 0 m /period glyphshow
10.495117 0 m /zero glyphshow
grestore
1.000 setgray
gsave
837 815.4 135 135 clipbox
302.4 135 m
302.4 950.4 l
stroke
grestore
0.150 setgray
gsave
293.650000 117.140625 translate
0.000000 rotate
0.000000 0 m /zero glyphshow
6.998535 0 m /period glyphshow
10.495117 0 m /two glyphshow
grestore
1.000 setgray
gsave
837 815.4 135 135 clipbox
469.8 135 m
469.8 950.4 l
stroke
grestore
0.150 setgray
gsave
461.050000 117.140625 translate
0.000000 rotate
0.000000 0 m /zero glyphshow
6.998535 0 m /period glyphshow
10.495117 0 m /four glyphshow
grestore
1.000 setgray
gsave
837 815.4 135 135 clipbox
637.2 135 m
637.2 950.4 l
stroke
grestore
0.150 setgray
gsave
628.450000 117.140625 translate
0.000000 rotate
0.000000 0 m /zero glyphshow
6.998535 0 m /period glyphshow
10.495117 0 m /six glyphshow
grestore
1.000 setgray
gsave
837 815.4 135 135 clipbox
804.6 135 m
804.6 950.4 l
stroke
grestore
0.150 setgray
gsave
795.850000 117.140625 translate
0.000000 rotate
0.000000 0 m /zero glyphshow
6.998535 0 m /period glyphshow
10.495117 0 m /eight glyphshow
grestore
1.000 setgray
gsave
837 815.4 135 135 clipbox
972 135 m
972 950.4 l
stroke
grestore
0.150 setgray
gsave
963.250000 117.140625 translate
0.000000 rotate
0.000000 0 m /one glyphshow
6.998535 0 m /period glyphshow
10.495117 0 m /zero glyphshow
grestore
/DejaVuSans findfont
12.000 scalefont
setfont
gsave
497.703125 101.734375 translate
0.000000 rotate
0.000000 0 m /F glyphshow
5.777344 0 m /a glyphshow
13.130859 0 m /l glyphshow
16.464844 0 m /s glyphshow
22.716797 0 m /e glyphshow
30.099609 0 m /space glyphshow
33.914062 0 m /P glyphshow
40.775391 0 m /o glyphshow
48.117188 0 m /s glyphshow
54.369141 0 m /i glyphshow
57.703125 0 m /t glyphshow
62.408203 0 m /i glyphshow
65.742188 0 m /v glyphshow
72.843750 0 m /e glyphshow
80.226562 0 m /space glyphshow
84.041016 0 m /R glyphshow
92.128906 0 m /a glyphshow
99.482422 0 m /t glyphshow
104.187500 0 m /e glyphshow
grestore
1.000 setgray
gsave
837 815.4 135 135 clipbox
135 135 m
972 135 l
stroke
grestore
0.150 setgray
/DejaVuSans findfont
11.000 scalefont
setfont
gsave
108.000000 130.820312 translate
0.000000 rotate
0.000000 0 m /zero glyphshow
6.998535 0 m /period glyphshow
10.495117 0 m /zero glyphshow
grestore
1.000 setgray
gsave
837 815.4 135 135 clipbox
135 290.314286 m
972 290.314286 l
stroke
grestore
0.150 setgray
gsave
108.000000 286.134598 translate
0.000000 rotate
0.000000 0 m /zero glyphshow
6.998535 0 m /period glyphshow
10.495117 0 m /two glyphshow
grestore
1.000 setgray
gsave
837 815.4 135 135 clipbox
135 445.628571 m
972 445.628571 l
stroke
grestore
0.150 setgray
gsave
108.000000 441.448884 translate
0.000000 rotate
0.000000 0 m /zero glyphshow
6.998535 0 m /period glyphshow
10.495117 0 m /four glyphshow
grestore
1.000 setgray
gsave
837 815.4 135 135 clipbox
135 600.942857 m
972 600.942857 l
stroke
grestore
0.150 setgray
gsave
108.000000 596.763170 translate
0.000000 rotate
0.000000 0 m /zero glyphshow
6.998535 0 m /period glyphshow
10.495117 0 m /six glyphshow
grestore
1.000 setgray
gsave
837 815.4 135 135 clipbox
135 756.257143 m
972 756.257143 l
stroke
grestore
0.150 setgray
gsave
108.000000 752.077455 translate
0.000000 rotate
0.000000 0 m /zero glyphshow
6.998535 0 m /period glyphshow
10.495117 0 m /eight glyphshow
grestore
1.000 setgray
gsave
837 815.4 135 135 clipbox
135 911.571429 m
972 911.571429 l
stroke
grestore
0.150 setgray
gsave
108.000000 907.391741 translate
0.000000 rotate
0.000000 0 m /one glyphshow
6.998535 0 m /period glyphshow
10.495117 0 m /zero glyphshow
grestore
/DejaVuSans findfont
12.000 scalefont
setfont
gsave
101.500000 489.200000 translate
90.000000 rotate
0.000000 0 m /T glyphshow
5.580078 0 m /r glyphshow
10.513672 0 m /u glyphshow
18.119141 0 m /e glyphshow
25.501953 0 m /space glyphshow
29.316406 0 m /P glyphshow
36.177734 0 m /o glyphshow
43.519531 0 m /s glyphshow
49.771484 0 m /i glyphshow
53.105469 0 m /t glyphshow
57.810547 0 m /i glyphshow
61.144531 0 m /v glyphshow
68.246094 0 m /e glyphshow
75.628906 0 m /space glyphshow
79.443359 0 m /R glyphshow
87.531250 0 m /a glyphshow
94.884766 0 m /t glyphshow
99.589844 0 m /e glyphshow
grestore
4.000 setlinewidth
0 setlinecap
[4 6.6] 0 setdash
1.000 0.078 0.576 setrgbcolor
gsave
837 815.4 135 135 clipbox
135 135 m
135.093689 897.764049 l
135.23777 904.127961 l
135.404045 907.052687 l
135.667465 908.881653 l
136.250519 910.487822 l
972 911.571429 l
stroke
grestore
0.000 0.000 0.502 setrgbcolor
gsave
837 815.4 135 135 clipbox
135 419.908256 m
135.004366 624.180303 l
135.004366 624.191492 l
135.004369 625.691843 l
135.004382 626.351515 l
135.004403 627.153809 l
135.00655 668.898113 l
135.006553 668.95928 l
135.006561 669.11479 l
135.006573 669.34005 l
135.006605 669.955064 l
135.008764 710.931884 l
135.00885 712.577123 l
135.008922 713.493617 l
135.013217 739.752604 l
135.015412 744.301671 l
135.019815 753.512676 l
135.021869 757.758206 l
135.026766 767.615001 l
135.035688 785.530387 l
135.037614 789.399059 l
135.04626 806.197717 l
135.04676 807.129486 l
135.04684 807.18022 l
135.05686 813.458725 l
135.078067 826.473229 l
135.083246 829.646524 l
135.101778 830.815865 l
135.104653 830.953793 l
135.112346 831.258566 l
135.139963 831.986796 l
135.173679 832.804585 l
135.240478 834.469226 l
135.252232 834.737355 l
135.305986 835.843082 l
135.308402 835.879484 l
135.543303 838.998072 l
135.715933 841.181152 l
135.719084 841.218859 l
135.816713 842.340771 l
137.483886 856.329257 l
142.199671 890.819858 l
143.924801 902.271783 l
156.691943 902.786308 l
168.503583 903.045366 l
178.526196 903.192913 l
189.077385 903.323332 l
972 911.571429 l
stroke
grestore
2.000 setlinewidth
1 setlinecap
[] 0 setdash
0.000 1.000 1.000 setrgbcolor
gsave
837 815.4 135 135 clipbox
135 135 m
135.013217 845.188186 l
135.04626 885.018131 l
135.112346 898.519808 l
135.308402 904.82059 l
135.715933 908.421037 l
972 911.571429 l
stroke
grestore
1.000 0.549 0.000 setrgbcolor
gsave
837 815.4 135 135 clipbox
135 135 m
135.00885 856.318888 l
135.037614 887.739975 l
135.101778 902.61566 l
135.252232 907.928404 l
135.719084 910.812465 l
972 911.571429 l
stroke
grestore
0.392 0.584 0.929 setrgbcolor
gsave
837 815.4 135 135 clipbox
135 135 m
135 858.014778 l
135.004366 858.014778 l
135.00655 858.014778 l
972 911.571429 l
stroke
grestore
0.647 0.165 0.165 setrgbcolor
gsave
837 815.4 135 135 clipbox
135 135 m
135 840.766387 l
135.006561 886.447059 l
135.021869 900.151261 l
135.05686 907.003361 l
135.139963 909.287395 l
972 911.571429 l
stroke
grestore
1.000 0.000 0.000 setrgbcolor
gsave
837 815.4 135 135 clipbox
135 135 m
135 853.237425 l
135 856.8833 l
135.004369 871.466801 l
135.004369 889.696177 l
135.006553 889.696177 l
972 911.571429 l
stroke
grestore
1.000 0.388 0.278 setrgbcolor
gsave
837 815.4 135 135 clipbox
135 135 m
135 911.571429 l
972 911.571429 l
stroke
grestore
1.000 0.894 0.769 setrgbcolor
gsave
837 815.4 135 135 clipbox
135 135 m
135 717.428571 l
135 911.571429 l
135.004366 911.571429 l
972 911.571429 l
stroke
grestore
0.804 0.522 0.247 setrgbcolor
gsave
837 815.4 135 135 clipbox
135 135 m
135.008922 908.81054 l
135.026766 910.333789 l
135.035688 910.524195 l
135.04684 910.905007 l
135.078067 911.285819 l
972 911.571429 l
stroke
grestore
1.000 0.843 0.000 setrgbcolor
gsave
837 815.4 135 135 clipbox
135 135 m
143.924801 903.969974 l
156.691943 908.912054 l
168.503583 910.663792 l
178.526196 911.210643 l
189.077385 911.462512 l
972 911.571429 l
stroke
grestore
0.502 0.502 0.000 setrgbcolor
gsave
837 815.4 135 135 clipbox
135 135 m
135.04676 893.576565 l
135.104653 901.436391 l
135.173679 903.297928 l
135.240478 905.67656 l
135.543303 908.15861 l
972 911.571429 l
stroke
grestore
1.000 1.000 0.000 setrgbcolor
gsave
837 815.4 135 135 clipbox
135 135 m
135.083246 741.029717 l
135.305986 771.021066 l
135.816713 803.261765 l
137.483886 841.296247 l
142.199671 882.875161 l
972 911.571429 l
stroke
grestore
0.000 0.502 0.000 setrgbcolor
gsave
837 815.4 135 135 clipbox
135 135 m
135.004403 907.261134 l
135.004403 908.458438 l
135.006605 909.17682 l
135.015412 909.895203 l
135.019815 911.331968 l
972 911.571429 l
stroke
grestore
0.502 0.000 0.502 setrgbcolor
gsave
837 815.4 135 135 clipbox
135 135 m
135.004382 910.438575 l
135.004382 911.005002 l
135.006573 911.005002 l
135.008764 911.571429 l
972 911.571429 l
stroke
grestore
0 setlinecap
[7.4 3.2] 0 setdash
0.100 setgray
gsave
837 815.4 135 135 clipbox
135 135 m
972 911.571429 l
stroke
grestore
1.250 setlinewidth
0 setlinejoin
2 setlinecap
[] 0 setdash
1.000 setgray
gsave
135 135 m
135 950.4 l
stroke
grestore
gsave
972 135 m
972 950.4 l
stroke
grestore
gsave
135 135 m
972 135 l
stroke
grestore
gsave
135 950.4 m
972 950.4 l
stroke
grestore
0.150 setgray
gsave
420.382812 956.400000 translate
0.000000 rotate
0.000000 0 m /R glyphshow
8.337891 0 m /O glyphshow
17.783203 0 m /C glyphshow
26.162109 0 m /space glyphshow
29.976562 0 m /C glyphshow
38.355469 0 m /u glyphshow
45.960938 0 m /r glyphshow
50.894531 0 m /v glyphshow
57.996094 0 m /e glyphshow
65.378906 0 m /space glyphshow
69.193359 0 m /o glyphshow
76.535156 0 m /f glyphshow
80.759766 0 m /space glyphshow
84.574219 0 m /M glyphshow
94.927734 0 m /o glyphshow
102.269531 0 m /d glyphshow
109.886719 0 m /e glyphshow
117.269531 0 m /l glyphshow
120.603516 0 m /space glyphshow
124.417969 0 m /B glyphshow
132.650391 0 m /y glyphshow
139.751953 0 m /space glyphshow
143.566406 0 m /K glyphshow
150.185547 0 m /hyphen glyphshow
154.515625 0 m /N glyphshow
163.492188 0 m /e glyphshow
170.875000 0 m /a glyphshow
178.228516 0 m /r glyphshow
182.912109 0 m /e glyphshow
190.294922 0 m /s glyphshow
196.546875 0 m /t glyphshow
201.251953 0 m /space glyphshow
205.066406 0 m /N glyphshow
214.042969 0 m /e glyphshow
221.425781 0 m /i glyphshow
224.759766 0 m /g glyphshow
232.376953 0 m /h glyphshow
239.982422 0 m /b glyphshow
247.599609 0 m /o glyphshow
254.941406 0 m /r glyphshow
259.875000 0 m /s glyphshow
grestore
1.000 setlinewidth
0 setlinecap
0.800 setgray
gsave
706.19375 140.5 m
964.3 140.5 l
965.766667 140.5 966.5 141.233333 966.5 142.7 c
966.5 383.709375 l
966.5 385.176042 965.766667 385.909375 964.3 385.909375 c
706.19375 385.909375 l
704.727083 385.909375 703.99375 385.176042 703.99375 383.709375 c
703.99375 142.7 l
703.99375 141.233333 704.727083 140.5 706.19375 140.5 c
cl
gsave
0.918 0.918 0.949 setrgbcolor
fill
grestore
stroke
grestore
4.000 setlinewidth
1 setlinejoin
[4 6.6] 0 setdash
1.000 0.078 0.576 setrgbcolor
gsave
708.39375 377 m
730.39375 377 l
stroke
grestore
0.150 setgray
/DejaVuSans findfont
11.000 scalefont
setfont
gsave
739.193750 373.150000 translate
0.000000 rotate
0.000000 0 m /m glyphshow
10.715332 0 m /i glyphshow
13.771484 0 m /c glyphshow
19.819336 0 m /r glyphshow
24.091797 0 m /o glyphshow
31.071777 0 m /hyphen glyphshow
35.041016 0 m /a glyphshow
41.781738 0 m /v glyphshow
48.291504 0 m /e glyphshow
55.059082 0 m /r glyphshow
59.581543 0 m /a glyphshow
66.322266 0 m /g glyphshow
73.304688 0 m /e glyphshow
80.072266 0 m /space glyphshow
83.568848 0 m /R glyphshow
91.211914 0 m /O glyphshow
99.870117 0 m /C glyphshow
107.550781 0 m /space glyphshow
111.047363 0 m /c glyphshow
117.095215 0 m /u glyphshow
124.066895 0 m /r glyphshow
128.589355 0 m /v glyphshow
135.099121 0 m /e glyphshow
141.866699 0 m /space glyphshow
145.363281 0 m /parenleft glyphshow
149.654785 0 m /a glyphshow
156.395508 0 m /r glyphshow
160.667969 0 m /e glyphshow
167.435547 0 m /a glyphshow
174.176270 0 m /space glyphshow
177.672852 0 m /equal glyphshow
186.889648 0 m /space glyphshow
190.386230 0 m /one glyphshow
197.384766 0 m /period glyphshow
200.881348 0 m /zero glyphshow
207.879883 0 m /zero glyphshow
214.878418 0 m /parenright glyphshow
grestore
0.000 0.000 0.502 setrgbcolor
gsave
708.39375 360.859375 m
730.39375 360.859375 l
stroke
grestore
0.150 setgray
gsave
739.193750 357.009375 translate
0.000000 rotate
0.000000 0 m /m glyphshow
10.715332 0 m /a glyphshow
17.456055 0 m /c glyphshow
23.503906 0 m /r glyphshow
27.776367 0 m /o glyphshow
34.756348 0 m /hyphen glyphshow
38.725586 0 m /a glyphshow
45.466309 0 m /v glyphshow
51.976074 0 m /e glyphshow
58.743652 0 m /r glyphshow
63.266113 0 m /a glyphshow
70.006836 0 m /g glyphshow
76.989258 0 m /e glyphshow
83.756836 0 m /space glyphshow
87.253418 0 m /R glyphshow
94.896484 0 m /O glyphshow
103.554688 0 m /C glyphshow
111.235352 0 m /space glyphshow
114.731934 0 m /c glyphshow
120.779785 0 m /u glyphshow
127.751465 0 m /r glyphshow
132.273926 0 m /v glyphshow
138.783691 0 m /e glyphshow
145.551270 0 m /space glyphshow
149.047852 0 m /parenleft glyphshow
153.339355 0 m /a glyphshow
160.080078 0 m /r glyphshow
164.352539 0 m /e glyphshow
171.120117 0 m /a glyphshow
177.860840 0 m /space glyphshow
181.357422 0 m /equal glyphshow
190.574219 0 m /space glyphshow
194.070801 0 m /zero glyphshow
201.069336 0 m /period glyphshow
204.565918 0 m /nine glyphshow
211.564453 0 m /nine glyphshow
218.562988 0 m /parenright glyphshow
grestore
2.000 setlinewidth
1 setlinecap
[] 0 setdash
0.000 1.000 1.000 setrgbcolor
gsave
708.39375 344.71875 m
730.39375 344.71875 l
stroke
grestore
0.150 setgray
gsave
739.193750 340.868750 translate
0.000000 rotate
0.000000 0 m /R glyphshow
7.643066 0 m /O glyphshow
16.301270 0 m /C glyphshow
23.981934 0 m /space glyphshow
27.478516 0 m /c glyphshow
33.526367 0 m /u glyphshow
40.498047 0 m /r glyphshow
45.020508 0 m /v glyphshow
51.530273 0 m /e glyphshow
58.297852 0 m /space glyphshow
61.794434 0 m /o glyphshow
68.524414 0 m /f glyphshow
72.396973 0 m /space glyphshow
75.893555 0 m /c glyphshow
81.941406 0 m /l glyphshow
84.997559 0 m /a glyphshow
91.738281 0 m /s glyphshow
97.469238 0 m /s glyphshow
103.200195 0 m /space glyphshow
106.696777 0 m /zero glyphshow
113.695312 0 m /space glyphshow
117.191895 0 m /parenleft glyphshow
121.483398 0 m /a glyphshow
128.224121 0 m /r glyphshow
132.496582 0 m /e glyphshow
139.264160 0 m /a glyphshow
146.004883 0 m /space glyphshow
149.501465 0 m /equal glyphshow
158.718262 0 m /space glyphshow
162.214844 0 m /one glyphshow
169.213379 0 m /period glyphshow
172.709961 0 m /zero glyphshow
179.708496 0 m /zero glyphshow
186.707031 0 m /parenright glyphshow
grestore
1.000 0.549 0.000 setrgbcolor
gsave
708.39375 328.578125 m
730.39375 328.578125 l
stroke
grestore
0.150 setgray
gsave
739.193750 324.728125 translate
0.000000 rotate
0.000000 0 m /R glyphshow
7.643066 0 m /O glyphshow
16.301270 0 m /C glyphshow
23.981934 0 m /space glyphshow
27.478516 0 m /c glyphshow
33.526367 0 m /u glyphshow
40.498047 0 m /r glyphshow
45.020508 0 m /v glyphshow
51.530273 0 m /e glyphshow
58.297852 0 m /space glyphshow
61.794434 0 m /o glyphshow
68.524414 0 m /f glyphshow
72.396973 0 m /space glyphshow
75.893555 0 m /c glyphshow
81.941406 0 m /l glyphshow
84.997559 0 m /a glyphshow
91.738281 0 m /s glyphshow
97.469238 0 m /s glyphshow
103.200195 0 m /space glyphshow
106.696777 0 m /one glyphshow
113.695312 0 m /space glyphshow
117.191895 0 m /parenleft glyphshow
121.483398 0 m /a glyphshow
128.224121 0 m /r glyphshow
132.496582 0 m /e glyphshow
139.264160 0 m /a glyphshow
146.004883 0 m /space glyphshow
149.501465 0 m /equal glyphshow
158.718262 0 m /space glyphshow
162.214844 0 m /one glyphshow
169.213379 0 m /period glyphshow
172.709961 0 m /zero glyphshow
179.708496 0 m /zero glyphshow
186.707031 0 m /parenright glyphshow
grestore
0.392 0.584 0.929 setrgbcolor
gsave
708.39375 312.4375 m
730.39375 312.4375 l
stroke
grestore
0.150 setgray
gsave
739.193750 308.587500 translate
0.000000 rotate
0.000000 0 m /R glyphshow
7.643066 0 m /O glyphshow
16.301270 0 m /C glyphshow
23.981934 0 m /space glyphshow
27.478516 0 m /c glyphshow
33.526367 0 m /u glyphshow
40.498047 0 m /r glyphshow
45.020508 0 m /v glyphshow
51.530273 0 m /e glyphshow
58.297852 0 m /space glyphshow
61.794434 0 m /o glyphshow
68.524414 0 m /f glyphshow
72.396973 0 m /space glyphshow
75.893555 0 m /c glyphshow
81.941406 0 m /l glyphshow
84.997559 0 m /a glyphshow
91.738281 0 m /s glyphshow
97.469238 0 m /s glyphshow
103.200195 0 m /space glyphshow
106.696777 0 m /two glyphshow
113.695312 0 m /space glyphshow
117.191895 0 m /parenleft glyphshow
121.483398 0 m /a glyphshow
128.224121 0 m /r glyphshow
132.496582 0 m /e glyphshow
139.264160 0 m /a glyphshow
146.004883 0 m /space glyphshow
149.501465 0 m /equal glyphshow
158.718262 0 m /space glyphshow
162.214844 0 m /zero glyphshow
169.213379 0 m /period glyphshow
172.709961 0 m /nine glyphshow
179.708496 0 m /seven glyphshow
186.707031 0 m /parenright glyphshow
grestore
0.647 0.165 0.165 setrgbcolor
gsave
708.39375 296.296875 m
730.39375 296.296875 l
stroke
grestore
0.150 setgray
gsave
739.193750 292.446875 translate
0.000000 rotate
0.000000 0 m /R glyphshow
7.643066 0 m /O glyphshow
16.301270 0 m /C glyphshow
23.981934 0 m /space glyphshow
27.478516 0 m /c glyphshow
33.526367 0 m /u glyphshow
40.498047 0 m /r glyphshow
45.020508 0 m /v glyphshow
51.530273 0 m /e glyphshow
58.297852 0 m /space glyphshow
61.794434 0 m /o glyphshow
68.524414 0 m /f glyphshow
72.396973 0 m /space glyphshow
75.893555 0 m /c glyphshow
81.941406 0 m /l glyphshow
84.997559 0 m /a glyphshow
91.738281 0 m /s glyphshow
97.469238 0 m /s glyphshow
103.200195 0 m /space glyphshow
106.696777 0 m /three glyphshow
113.695312 0 m /space glyphshow
117.191895 0 m /parenleft glyphshow
121.483398 0 m /a glyphshow
128.224121 0 m /r glyphshow
132.496582 0 m /e glyphshow
139.264160 0 m /a glyphshow
146.004883 0 m /space glyphshow
149.501465 0 m /equal glyphshow
158.718262 0 m /space glyphshow
162.214844 0 m /one glyphshow
169.213379 0 m /period glyphshow
172.709961 0 m /zero glyphshow
179.708496 0 m /zero glyphshow
186.707031 0 m /parenright glyphshow
grestore
1.000 0.000 0.000 setrgbcolor
gsave
708.39375 280.15625 m
730.39375 280.15625 l
stroke
grestore
0.150 setgray
gsave
739.193750 276.306250 translate
0.000000 rotate
0.000000 0 m /R glyphshow
7.643066 0 m /O glyphshow
16.301270 0 m /C glyphshow
23.981934 0 m /space glyphshow
27.478516 0 m /c glyphshow
33.526367 0 m /u glyphshow
40.498047 0 m /r glyphshow
45.020508 0 m /v glyphshow
51.530273 0 m /e glyphshow
58.297852 0 m /space glyphshow
61.794434 0 m /o glyphshow
68.524414 0 m /f glyphshow
72.396973 0 m /space glyphshow
75.893555 0 m /c glyphshow
81.941406 0 m /l glyphshow
84.997559 0 m /a glyphshow
91.738281 0 m /s glyphshow
97.469238 0 m /s glyphshow
103.200195 0 m /space glyphshow
106.696777 0 m /four glyphshow
113.695312 0 m /space glyphshow
117.191895 0 m /parenleft glyphshow
121.483398 0 m /a glyphshow
128.224121 0 m /r glyphshow
132.496582 0 m /e glyphshow
139.264160 0 m /a glyphshow
146.004883 0 m /space glyphshow
149.501465 0 m /equal glyphshow
158.718262 0 m /space glyphshow
162.214844 0 m /zero glyphshow
169.213379 0 m /period glyphshow
172.709961 0 m /nine glyphshow
179.708496 0 m /nine glyphshow
186.707031 0 m /parenright glyphshow
grestore
1.000 0.388 0.278 setrgbcolor
gsave
708.39375 264.015625 m
730.39375 264.015625 l
stroke
grestore
0.150 setgray
gsave
739.193750 260.165625 translate
0.000000 rotate
0.000000 0 m /R glyphshow
7.643066 0 m /O glyphshow
16.301270 0 m /C glyphshow
23.981934 0 m /space glyphshow
27.478516 0 m /c glyphshow
33.526367 0 m /u glyphshow
40.498047 0 m /r glyphshow
45.020508 0 m /v glyphshow
51.530273 0 m /e glyphshow
58.297852 0 m /space glyphshow
61.794434 0 m /o glyphshow
68.524414 0 m /f glyphshow
72.396973 0 m /space glyphshow
75.893555 0 m /c glyphshow
81.941406 0 m /l glyphshow
84.997559 0 m /a glyphshow
91.738281 0 m /s glyphshow
97.469238 0 m /s glyphshow
103.200195 0 m /space glyphshow
106.696777 0 m /five glyphshow
113.695312 0 m /space glyphshow
117.191895 0 m /parenleft glyphshow
121.483398 0 m /a glyphshow
128.224121 0 m /r glyphshow
132.496582 0 m /e glyphshow
139.264160 0 m /a glyphshow
146.004883 0 m /space glyphshow
149.501465 0 m /equal glyphshow
158.718262 0 m /space glyphshow
162.214844 0 m /one glyphshow
169.213379 0 m /period glyphshow
172.709961 0 m /zero glyphshow
179.708496 0 m /zero glyphshow
186.707031 0 m /parenright glyphshow
grestore
1.000 0.894 0.769 setrgbcolor
gsave
708.39375 247.875 m
730.39375 247.875 l
stroke
grestore
0.150 setgray
gsave
739.193750 244.025000 translate
0.000000 rotate
0.000000 0 m /R glyphshow
7.643066 0 m /O glyphshow
16.301270 0 m /C glyphshow
23.981934 0 m /space glyphshow
27.478516 0 m /c glyphshow
33.526367 0 m /u glyphshow
40.498047 0 m /r glyphshow
45.020508 0 m /v glyphshow
51.530273 0 m /e glyphshow
58.297852 0 m /space glyphshow
61.794434 0 m /o glyphshow
68.524414 0 m /f glyphshow
72.396973 0 m /space glyphshow
75.893555 0 m /c glyphshow
81.941406 0 m /l glyphshow
84.997559 0 m /a glyphshow
91.738281 0 m /s glyphshow
97.469238 0 m /s glyphshow
103.200195 0 m /space glyphshow
106.696777 0 m /six glyphshow
113.695312 0 m /space glyphshow
117.191895 0 m /parenleft glyphshow
121.483398 0 m /a glyphshow
128.224121 0 m /r glyphshow
132.496582 0 m /e glyphshow
139.264160 0 m /a glyphshow
146.004883 0 m /space glyphshow
149.501465 0 m /equal glyphshow
158.718262 0 m /space glyphshow
162.214844 0 m /one glyphshow
169.213379 0 m /period glyphshow
172.709961 0 m /zero glyphshow
179.708496 0 m /zero glyphshow
186.707031 0 m /parenright glyphshow
grestore
0.804 0.522 0.247 setrgbcolor
gsave
708.39375 231.734375 m
730.39375 231.734375 l
stroke
grestore
0.150 setgray
gsave
739.193750 227.884375 translate
0.000000 rotate
0.000000 0 m /R glyphshow
7.643066 0 m /O glyphshow
16.301270 0 m /C glyphshow
23.981934 0 m /space glyphshow
27.478516 0 m /c glyphshow
33.526367 0 m /u glyphshow
40.498047 0 m /r glyphshow
45.020508 0 m /v glyphshow
51.530273 0 m /e glyphshow
58.297852 0 m /space glyphshow
61.794434 0 m /o glyphshow
68.524414 0 m /f glyphshow
72.396973 0 m /space glyphshow
75.893555 0 m /c glyphshow
81.941406 0 m /l glyphshow
84.997559 0 m /a glyphshow
91.738281 0 m /s glyphshow
97.469238 0 m /s glyphshow
103.200195 0 m /space glyphshow
106.696777 0 m /seven glyphshow
113.695312 0 m /space glyphshow
117.191895 0 m /parenleft glyphshow
121.483398 0 m /a glyphshow
128.224121 0 m /r glyphshow
132.496582 0 m /e glyphshow
139.264160 0 m /a glyphshow
146.004883 0 m /space glyphshow
149.501465 0 m /equal glyphshow
158.718262 0 m /space glyphshow
162.214844 0 m /one glyphshow
169.213379 0 m /period glyphshow
172.709961 0 m /zero glyphshow
179.708496 0 m /zero glyphshow
186.707031 0 m /parenright glyphshow
grestore
1.000 0.843 0.000 setrgbcolor
gsave
708.39375 215.59375 m
730.39375 215.59375 l
stroke
grestore
0.150 setgray
gsave
739.193750 211.743750 translate
0.000000 rotate
0.000000 0 m /R glyphshow
7.643066 0 m /O glyphshow
16.301270 0 m /C glyphshow
23.981934 0 m /space glyphshow
27.478516 0 m /c glyphshow
33.526367 0 m /u glyphshow
40.498047 0 m /r glyphshow
45.020508 0 m /v glyphshow
51.530273 0 m /e glyphshow
58.297852 0 m /space glyphshow
61.794434 0 m /o glyphshow
68.524414 0 m /f glyphshow
72.396973 0 m /space glyphshow
75.893555 0 m /c glyphshow
81.941406 0 m /l glyphshow
84.997559 0 m /a glyphshow
91.738281 0 m /s glyphshow
97.469238 0 m /s glyphshow
103.200195 0 m /space glyphshow
106.696777 0 m /eight glyphshow
113.695312 0 m /space glyphshow
117.191895 0 m /parenleft glyphshow
121.483398 0 m /a glyphshow
128.224121 0 m /r glyphshow
132.496582 0 m /e glyphshow
139.264160 0 m /a glyphshow
146.004883 0 m /space glyphshow
149.501465 0 m /equal glyphshow
158.718262 0 m /space glyphshow
162.214844 0 m /zero glyphshow
169.213379 0 m /period glyphshow
172.709961 0 m /nine glyphshow
179.708496 0 m /nine glyphshow
186.707031 0 m /parenright glyphshow
grestore
0.502 0.502 0.000 setrgbcolor
gsave
708.39375 199.453125 m
730.39375 199.453125 l
stroke
grestore
0.150 setgray
gsave
739.193750 195.603125 translate
0.000000 rotate
0.000000 0 m /R glyphshow
7.643066 0 m /O glyphshow
16.301270 0 m /C glyphshow
23.981934 0 m /space glyphshow
27.478516 0 m /c glyphshow
33.526367 0 m /u glyphshow
40.498047 0 m /r glyphshow
45.020508 0 m /v glyphshow
51.530273 0 m /e glyphshow
58.297852 0 m /space glyphshow
61.794434 0 m /o glyphshow
68.524414 0 m /f glyphshow
72.396973 0 m /space glyphshow
75.893555 0 m /c glyphshow
81.941406 0 m /l glyphshow
84.997559 0 m /a glyphshow
91.738281 0 m /s glyphshow
97.469238 0 m /s glyphshow
103.200195 0 m /space glyphshow
106.696777 0 m /nine glyphshow
113.695312 0 m /space glyphshow
117.191895 0 m /parenleft glyphshow
121.483398 0 m /a glyphshow
128.224121 0 m /r glyphshow
132.496582 0 m /e glyphshow
139.264160 0 m /a glyphshow
146.004883 0 m /space glyphshow
149.501465 0 m /equal glyphshow
158.718262 0 m /space glyphshow
162.214844 0 m /one glyphshow
169.213379 0 m /period glyphshow
172.709961 0 m /zero glyphshow
179.708496 0 m /zero glyphshow
186.707031 0 m /parenright glyphshow
grestore
1.000 1.000 0.000 setrgbcolor
gsave
708.39375 183.3125 m
730.39375 183.3125 l
stroke
grestore
0.150 setgray
gsave
739.193750 179.462500 translate
0.000000 rotate
0.000000 0 m /R glyphshow
7.643066 0 m /O glyphshow
16.301270 0 m /C glyphshow
23.981934 0 m /space glyphshow
27.478516 0 m /c glyphshow
33.526367 0 m /u glyphshow
40.498047 0 m /r glyphshow
45.020508 0 m /v glyphshow
51.530273 0 m /e glyphshow
58.297852 0 m /space glyphshow
61.794434 0 m /o glyphshow
68.524414 0 m /f glyphshow
72.396973 0 m /space glyphshow
75.893555 0 m /c glyphshow
81.941406 0 m /l glyphshow
84.997559 0 m /a glyphshow
91.738281 0 m /s glyphshow
97.469238 0 m /s glyphshow
103.200195 0 m /space glyphshow
106.696777 0 m /one glyphshow
113.695312 0 m /zero glyphshow
120.693848 0 m /space glyphshow
124.190430 0 m /parenleft glyphshow
128.481934 0 m /a glyphshow
135.222656 0 m /r glyphshow
139.495117 0 m /e glyphshow
146.262695 0 m /a glyphshow
153.003418 0 m /space glyphshow
156.500000 0 m /equal glyphshow
165.716797 0 m /space glyphshow
169.213379 0 m /zero glyphshow
176.211914 0 m /period glyphshow
179.708496 0 m /nine glyphshow
186.707031 0 m /eight glyphshow
193.705566 0 m /parenright glyphshow
grestore
0.000 0.502 0.000 setrgbcolor
gsave
708.39375 167.171875 m
730.39375 167.171875 l
stroke
grestore
0.150 setgray
gsave
739.193750 163.321875 translate
0.000000 rotate
0.000000 0 m /R glyphshow
7.643066 0 m /O glyphshow
16.301270 0 m /C glyphshow
23.981934 0 m /space glyphshow
27.478516 0 m /c glyphshow
33.526367 0 m /u glyphshow
40.498047 0 m /r glyphshow
45.020508 0 m /v glyphshow
51.530273 0 m /e glyphshow
58.297852 0 m /space glyphshow
61.794434 0 m /o glyphshow
68.524414 0 m /f glyphshow
72.396973 0 m /space glyphshow
75.893555 0 m /c glyphshow
81.941406 0 m /l glyphshow
84.997559 0 m /a glyphshow
91.738281 0 m /s glyphshow
97.469238 0 m /s glyphshow
103.200195 0 m /space glyphshow
106.696777 0 m /one glyphshow
113.695312 0 m /one glyphshow
120.693848 0 m /space glyphshow
124.190430 0 m /parenleft glyphshow
128.481934 0 m /a glyphshow
135.222656 0 m /r glyphshow
139.495117 0 m /e glyphshow
146.262695 0 m /a glyphshow
153.003418 0 m /space glyphshow
156.500000 0 m /equal glyphshow
165.716797 0 m /space glyphshow
169.213379 0 m /one glyphshow
176.211914 0 m /period glyphshow
179.708496 0 m /zero glyphshow
186.707031 0 m /zero glyphshow
193.705566 0 m /parenright glyphshow
grestore
0.502 0.000 0.502 setrgbcolor
gsave
708.39375 151.03125 m
730.39375 151.03125 l
stroke
grestore
0.150 setgray
gsave
739.193750 147.181250 translate
0.000000 rotate
0.000000 0 m /R glyphshow
7.643066 0 m /O glyphshow
16.301270 0 m /C glyphshow
23.981934 0 m /space glyphshow
27.478516 0 m /c glyphshow
33.526367 0 m /u glyphshow
40.498047 0 m /r glyphshow
45.020508 0 m /v glyphshow
51.530273 0 m /e glyphshow
58.297852 0 m /space glyphshow
61.794434 0 m /o glyphshow
68.524414 0 m /f glyphshow
72.396973 0 m /space glyphshow
75.893555 0 m /c glyphshow
81.941406 0 m /l glyphshow
84.997559 0 m /a glyphshow
91.738281 0 m /s glyphshow
97.469238 0 m /s glyphshow
103.200195 0 m /space glyphshow
106.696777 0 m /one glyphshow
113.695312 0 m /two glyphshow
120.693848 0 m /space glyphshow
124.190430 0 m /parenleft glyphshow
128.481934 0 m /a glyphshow
135.222656 0 m /r glyphshow
139.495117 0 m /e glyphshow
146.262695 0 m /a glyphshow
153.003418 0 m /space glyphshow
156.500000 0 m /equal glyphshow
165.716797 0 m /space glyphshow
169.213379 0 m /one glyphshow
176.211914 0 m /period glyphshow
179.708496 0 m /zero glyphshow
186.707031 0 m /zero glyphshow
193.705566 0 m /parenright glyphshow
grestore

end
showpage
